{
    "basename": "asr-string1-94ec834",
    "cmd": "lfortran --show-asr --no-color {infile} -o {outfile}",
    "infile": "tests/../integration_tests/string1.f90",
    "infile_hash": "d03124d042e49a615db3d1dd14d3c33fb8899181f68c024802cf1372",
    "outfile": null,
    "outfile_hash": null,
    "stdout": "asr-string1-94ec834.stdout",
    "stdout_hash": "0d535df4397fba0f23a4e67f9b73140e62ac93f690fa5ff973bdb8d4",
    "stderr": null,
    "stderr_hash": null,
    "returncode": 0
}