{
    "basename": "asr-logical4-72c2657",
    "cmd": "lfortran --show-asr --no-color {infile} -o {outfile}",
    "infile": "tests/../integration_tests/logical4.f90",
    "infile_hash": "b7d7e719c411795f29b9664e000f2530e011215d65991c8e2b477707",
    "outfile": null,
    "outfile_hash": null,
    "stdout": "asr-logical4-72c2657.stdout",
    "stdout_hash": "9ce7e626255026b80825e560f6c0471295ff5ff0c5d4c94b3c27a4ae",
    "stderr": null,
    "stderr_hash": null,
    "returncode": 0
}