{
    "basename": "asr-intrinsics_02-1c20d1a",
    "cmd": "lfortran --show-asr --no-color {infile} -o {outfile}",
    "infile": "tests/../integration_tests/intrinsics_02.f90",
    "infile_hash": "62898f6506eceb32aa540718b4d9de7cd0f9942d9cf5eb181748eba9",
    "outfile": null,
    "outfile_hash": null,
    "stdout": "asr-intrinsics_02-1c20d1a.stdout",
    "stdout_hash": "488b939dcb1a2742eb2ecf609fa106b44e4e3c8fa28c704a94ce2a50",
    "stderr": null,
    "stderr_hash": null,
    "returncode": 0
}