{
    "basename": "asr-associate_01-24b5a9e",
    "cmd": "lfortran --show-asr --no-color {infile} -o {outfile}",
    "infile": "tests/../integration_tests/associate_01.f90",
    "infile_hash": "2c30bae981ba0fa05fb7f5715aeb34ee5a742af7c732b17902ba4ae0",
    "outfile": null,
    "outfile_hash": null,
    "stdout": "asr-associate_01-24b5a9e.stdout",
    "stdout_hash": "280335b90d0ea9eed4544cabd6496605ae32912a77b80248153e6cfb",
    "stderr": null,
    "stderr_hash": null,
    "returncode": 0
}