{
    "basename": "ast-fn3-5eccc1b",
    "cmd": "lfortran --show-ast --no-color {infile} -o {outfile}",
    "infile": "tests/fn3.f90",
    "infile_hash": "9cb6b85c5c656d4fd5e9402dd69877be1fec7b37ce21b2ae59abc263",
    "outfile": null,
    "outfile_hash": null,
    "stdout": "ast-fn3-5eccc1b.stdout",
    "stdout_hash": "7ccad2aff17ca93e67aba578f801c596fbf4030eeb656cb786a075ef",
    "stderr": null,
    "stderr_hash": null,
    "returncode": 0
}