{
    "basename": "ast-block_01-4806ec9",
    "cmd": "lfortran --show-ast --no-color {infile} -o {outfile}",
    "infile": "tests/../integration_tests/block_01.f90",
    "infile_hash": "3862c5acbfa54171e874ceae7f7b6ac5185401dd7216e735d748cf2b",
    "outfile": null,
    "outfile_hash": null,
    "stdout": "ast-block_01-4806ec9.stdout",
    "stdout_hash": "e685f3f011e40a7663d6a0acb693d53853051936241e9ded70ce6556",
    "stderr": null,
    "stderr_hash": null,
    "returncode": 0
}