{
    "basename": "ast-array3-a030743",
    "cmd": "lfortran --show-ast --no-color {infile} -o {outfile}",
    "infile": "tests/array3.f90",
    "infile_hash": "047ac01d7e3df52429d6889258f37213048937dae8611af6cbd9ecae",
    "outfile": null,
    "outfile_hash": null,
    "stdout": "ast-array3-a030743.stdout",
    "stdout_hash": "23d4d6fb06c12f243a71868575053027d4ff32717af0db27d4c1b695",
    "stderr": null,
    "stderr_hash": null,
    "returncode": 0
}