{
    "basename": "llvm-case_01-a236f4a",
    "cmd": "lfortran --show-llvm {infile} -o {outfile}",
    "infile": "tests/../integration_tests/case_01.f90",
    "infile_hash": "2ac706c2d84ea4be0c07b3d3a2e0069c067130ae1229844524cd2755",
    "outfile": null,
    "outfile_hash": null,
    "stdout": "llvm-case_01-a236f4a.stdout",
    "stdout_hash": "56827082834c341c0d8912679b3e58ba05168143f5394d49aad01fba",
    "stderr": null,
    "stderr_hash": null,
    "returncode": 0
}