{
    "basename": "llvm-case_02-c5ee6d8",
    "cmd": "lfortran --show-llvm {infile} -o {outfile}",
    "infile": "tests/../integration_tests/case_02.f90",
    "infile_hash": "af51174f826d7610b0b46b876a83e5df8493f7f8cceb8b1b87105598",
    "outfile": null,
    "outfile_hash": null,
    "stdout": "llvm-case_02-c5ee6d8.stdout",
    "stdout_hash": "71eec375ded65bc6f0b88fd885edc0639bd854d5f64040fad09e0e27",
    "stderr": null,
    "stderr_hash": null,
    "returncode": 0
}