; ModuleID = 'LFortran'
source_filename = "LFortran"

@0 = private unnamed_addr constant [7 x i8] c"%d %d\0A\00", align 1
@1 = private unnamed_addr constant [4 x i8] c"%d\0A\00", align 1
@2 = private unnamed_addr constant [12 x i8] c"ERROR STOP\0A\00", align 1

define i64 @main() {
.entry:
  %i = alloca i64, align 8
  %p1 = alloca i64*, align 8
  %t1 = alloca i64, align 8
  store i64 2, i64* %t1, align 4
  %t2 = alloca i64, align 8
  store i64 1, i64* %t2, align 4
  %0 = load i64, i64* %t1, align 4
  %1 = load i64, i64* %t2, align 4
  call void (i8*, ...) @_lfortran_printf(i8* getelementptr inbounds ([7 x i8], [7 x i8]* @0, i32 0, i32 0), i64 %0, i64 %1)
  %2 = load i64, i64* %t1, align 4
  %3 = load i64, i64* %t2, align 4
  %4 = icmp sgt i64 %2, %3
  br i1 %4, label %then, label %else

then:                                             ; preds = %.entry
  store i64* %t1, i64** %p1, align 8
  br label %ifcont

else:                                             ; preds = %.entry
  store i64* %t2, i64** %p1, align 8
  br label %ifcont

ifcont:                                           ; preds = %else, %then
  %iftmp = phi i64 [ 1, %then ], [ 2, %else ]
  %5 = load i64*, i64** %p1, align 8
  %6 = load i64, i64* %5, align 4
  call void (i8*, ...) @_lfortran_printf(i8* getelementptr inbounds ([4 x i8], [4 x i8]* @1, i32 0, i32 0), i64 %6)
  %7 = load i64*, i64** %p1, align 8
  %8 = load i64, i64* %7, align 4
  store i64 %8, i64* %i, align 4
  %9 = load i64, i64* %i, align 4
  %10 = load i64, i64* %t2, align 4
  %11 = icmp eq i64 %9, %10
  br i1 %11, label %then1, label %else2

then1:                                            ; preds = %ifcont
  call void (i8*, ...) @_lfortran_printf(i8* getelementptr inbounds ([12 x i8], [12 x i8]* @2, i32 0, i32 0))
  call void @exit(i64 1)
  br label %ifcont3

else2:                                            ; preds = %ifcont
  br label %ifcont3

ifcont3:                                          ; preds = %else2, %then1
  %iftmp4 = phi i64 [ 1, %then1 ], [ 2, %else2 ]
  ret i64 0
}

declare void @_lfortran_printf(i8*, ...)

declare void @exit(i64)

