; ModuleID = 'LFortran'
source_filename = "LFortran"

@x = global i64 0

define void @f() {
.entry:
  %f1 = alloca i64, align 8
  store i64 6, i64* @x, align 4
  %0 = load i64, i64* @x, align 4
  %1 = mul i64 2, %0
  store i64 %1, i64* %f1, align 4
  %2 = load i64, i64* @x, align 4
  %3 = add i64 %2, 1
  store i64 %3, i64* @x, align 4
  ret void
}

