{
    "basename": "llvm-global_scope6-27d1089",
    "cmd": "lfortran --show-llvm {infile} -o {outfile}",
    "infile": "tests/global_scope6.f90",
    "infile_hash": "3f2dfa122b78175565b7baa8f4d0417cfb0ed5bbe26bbb5f0f1f6f2e",
    "outfile": null,
    "outfile_hash": null,
    "stdout": "llvm-global_scope6-27d1089.stdout",
    "stdout_hash": "8563e8246850f8bddcd46125924eb9c7f14fa67c5945c92eb33dc8d4",
    "stderr": null,
    "stderr_hash": null,
    "returncode": 0
}