{
    "basename": "llvm-types_02-ce1aabb",
    "cmd": "lfortran --show-llvm {infile} -o {outfile}",
    "infile": "tests/../integration_tests/types_02.f90",
    "infile_hash": "6b9728dd8c74663d697504a17537aef00ed9210bf24fae6e7e0468bc",
    "outfile": null,
    "outfile_hash": null,
    "stdout": "llvm-types_02-ce1aabb.stdout",
    "stdout_hash": "1ce5c50b1f2ff2dd038c2a735c2f3eaa579321193755872c375e4116",
    "stderr": null,
    "stderr_hash": null,
    "returncode": 0
}