; ModuleID = 'LFortran'
source_filename = "LFortran"

define i64 @main() {
.entry:
  %i = alloca i64, align 8
  %r = alloca float, align 4
  store float 2.000000e+00, float* %r, align 4
  store float 2.000000e+00, float* %r, align 4
  store float 8.000000e+00, float* %r, align 4
  store float 4.000000e+00, float* %r, align 4
  store float 0.000000e+00, float* %r, align 4
  store float 5.000000e-01, float* %r, align 4
  store float 5.000000e-01, float* %r, align 4
  store i64 2, i64* %i, align 4
  store i64 2, i64* %i, align 4
  store i64 8, i64* %i, align 4
  store i64 4, i64* %i, align 4
  store i64 0, i64* %i, align 4
  store i64 0, i64* %i, align 4
  store i64 0, i64* %i, align 4
  ret i64 0
}

