; ModuleID = 'LFortran'
source_filename = "LFortran"

%complex = type { float, float }

@0 = private unnamed_addr constant [9 x i8] c"(%f,%f)\0A\00", align 1
@1 = private unnamed_addr constant [9 x i8] c"(%f,%f)\0A\00", align 1
@2 = private unnamed_addr constant [9 x i8] c"(%f,%f)\0A\00", align 1

define i64 @main() {
.entry:
  %x = alloca %complex, align 8
  %0 = alloca %complex, align 8
  %1 = getelementptr %complex, %complex* %0, i32 0, i32 0
  %2 = getelementptr %complex, %complex* %0, i32 0, i32 1
  store float 3.000000e+00, float* %1, align 4
  store float 4.000000e+00, float* %2, align 4
  %3 = load %complex, %complex* %0, align 4
  store %complex %3, %complex* %x, align 4
  %4 = load %complex, %complex* %x, align 4
  %5 = alloca %complex, align 8
  %6 = getelementptr %complex, %complex* %5, i32 0, i32 0
  %7 = getelementptr %complex, %complex* %5, i32 0, i32 1
  store float 4.000000e+00, float* %6, align 4
  store float 0.000000e+00, float* %7, align 4
  %8 = load %complex, %complex* %5, align 4
  %9 = alloca %complex, align 8
  store %complex %4, %complex* %9, align 4
  %10 = alloca %complex, align 8
  store %complex %8, %complex* %10, align 4
  %11 = alloca %complex, align 8
  call void (%complex*, %complex*, %complex*, ...) @_lfortran_complex_div(%complex* %9, %complex* %10, %complex* %11)
  %12 = load %complex, %complex* %11, align 4
  store %complex %12, %complex* %x, align 4
  %13 = load %complex, %complex* %x, align 4
  %14 = alloca %complex, align 8
  store %complex %13, %complex* %14, align 4
  %15 = getelementptr %complex, %complex* %14, i32 0, i32 0
  %16 = load float, float* %15, align 4
  %17 = fpext float %16 to double
  %18 = alloca %complex, align 8
  store %complex %13, %complex* %18, align 4
  %19 = getelementptr %complex, %complex* %18, i32 0, i32 1
  %20 = load float, float* %19, align 4
  %21 = fpext float %20 to double
  call void (i8*, ...) @_lfortran_printf(i8* getelementptr inbounds ([9 x i8], [9 x i8]* @0, i32 0, i32 0), double %17, double %21)
  %22 = alloca %complex, align 8
  %23 = getelementptr %complex, %complex* %22, i32 0, i32 0
  %24 = getelementptr %complex, %complex* %22, i32 0, i32 1
  store float 2.000000e+00, float* %23, align 4
  store float 0.000000e+00, float* %24, align 4
  %25 = load %complex, %complex* %22, align 4
  %26 = load %complex, %complex* %x, align 4
  %27 = alloca %complex, align 8
  store %complex %25, %complex* %27, align 4
  %28 = alloca %complex, align 8
  store %complex %26, %complex* %28, align 4
  %29 = alloca %complex, align 8
  call void (%complex*, %complex*, %complex*, ...) @_lfortran_complex_div(%complex* %27, %complex* %28, %complex* %29)
  %30 = load %complex, %complex* %29, align 4
  store %complex %30, %complex* %x, align 4
  %31 = load %complex, %complex* %x, align 4
  %32 = alloca %complex, align 8
  store %complex %31, %complex* %32, align 4
  %33 = getelementptr %complex, %complex* %32, i32 0, i32 0
  %34 = load float, float* %33, align 4
  %35 = fpext float %34 to double
  %36 = alloca %complex, align 8
  store %complex %31, %complex* %36, align 4
  %37 = getelementptr %complex, %complex* %36, i32 0, i32 1
  %38 = load float, float* %37, align 4
  %39 = fpext float %38 to double
  call void (i8*, ...) @_lfortran_printf(i8* getelementptr inbounds ([9 x i8], [9 x i8]* @1, i32 0, i32 0), double %35, double %39)
  %40 = alloca %complex, align 8
  %41 = getelementptr %complex, %complex* %40, i32 0, i32 0
  %42 = getelementptr %complex, %complex* %40, i32 0, i32 1
  store float 1.000000e+00, float* %41, align 4
  store float 0.000000e+00, float* %42, align 4
  %43 = load %complex, %complex* %40, align 4
  %44 = load %complex, %complex* %x, align 4
  %45 = alloca %complex, align 8
  %46 = getelementptr %complex, %complex* %45, i32 0, i32 0
  %47 = getelementptr %complex, %complex* %45, i32 0, i32 1
  store float 0.000000e+00, float* %46, align 4
  store float 3.000000e+00, float* %47, align 4
  %48 = load %complex, %complex* %45, align 4
  %49 = alloca %complex, align 8
  store %complex %44, %complex* %49, align 4
  %50 = alloca %complex, align 8
  store %complex %48, %complex* %50, align 4
  %51 = alloca %complex, align 8
  call void (%complex*, %complex*, %complex*, ...) @_lfortran_complex_add(%complex* %49, %complex* %50, %complex* %51)
  %52 = load %complex, %complex* %51, align 4
  %53 = alloca %complex, align 8
  store %complex %43, %complex* %53, align 4
  %54 = alloca %complex, align 8
  store %complex %52, %complex* %54, align 4
  %55 = alloca %complex, align 8
  call void (%complex*, %complex*, %complex*, ...) @_lfortran_complex_div(%complex* %53, %complex* %54, %complex* %55)
  %56 = load %complex, %complex* %55, align 4
  store %complex %56, %complex* %x, align 4
  %57 = load %complex, %complex* %x, align 4
  %58 = alloca %complex, align 8
  store %complex %57, %complex* %58, align 4
  %59 = getelementptr %complex, %complex* %58, i32 0, i32 0
  %60 = load float, float* %59, align 4
  %61 = fpext float %60 to double
  %62 = alloca %complex, align 8
  store %complex %57, %complex* %62, align 4
  %63 = getelementptr %complex, %complex* %62, i32 0, i32 1
  %64 = load float, float* %63, align 4
  %65 = fpext float %64 to double
  call void (i8*, ...) @_lfortran_printf(i8* getelementptr inbounds ([9 x i8], [9 x i8]* @2, i32 0, i32 0), double %61, double %65)
  ret i64 0
}

declare void @_lfortran_complex_div(%complex*, %complex*, %complex*, ...)

declare void @_lfortran_printf(i8*, ...)

declare void @_lfortran_complex_add(%complex*, %complex*, %complex*, ...)

