{
    "basename": "llvm-types_01-58bfcc9",
    "cmd": "lfortran --show-llvm {infile} -o {outfile}",
    "infile": "tests/../integration_tests/types_01.f90",
    "infile_hash": "551d14053f907f18f3ffcd47309e735206789f8bd754d11187c8fab3",
    "outfile": null,
    "outfile_hash": null,
    "stdout": "llvm-types_01-58bfcc9.stdout",
    "stdout_hash": "c69e95c8c579ff77f5d6a7b0e4beede8fe6780a617f7c6041b946d50",
    "stderr": null,
    "stderr_hash": null,
    "returncode": 0
}